Brings SpatialExperiment to the tidyverse • tidySpatialExperiment
…
spe_regions_aggregated <-
  spe_regions |>
  aggregate_cells(region)

Important considerations

Read-only columns

Removing the .cell column will return a tibble. This is consistent with the behaviour in other tidyomics packages.

spe |>
  select(-.cell) |>
  head()
#  tidySpatialExperiment says: Key columns are missing. A data frame is returned for independent data analysis.
#  # A tibble: 6 × 4
#    in_tissue array_row array_col sample_id
#    <lgl>         <int>     <int> <chr>    
#  1 FALSE             0        16 section1 
#  2 TRUE             50       102 section1 
#  3 TRUE              3        43 section1 
#  4 TRUE             59        19 section1 
#  5 TRUE             14        94 section1 
#  # ℹ 1 more row
…
