Group input by rows — rowwise • tidySpatialExperiment
…
#> in_tissue section1 section2
#>     FALSE       28       27
#>     TRUE        22       22
#> 
#> rd10xV> # view available images
#> rd10xV> imgData(spe)
#> DataFrame with 2 rows and 4 columns
#>     sample_id    image_id   data scaleFactor
#>   <character> <character> <list>   <numeric>
#> 1    section1      lowres   ####   0.0510334
#> 2    section2      lowres   ####   0.0510334
spe |>
    rowwise()
#> tidySingleCellExperiment says: A data frame is returned for independent data analysis.
#> # A tibble: 99 × 7
#> # Rowwise: 
#>    .cell              in_tissue array_row array_col sample_id pxl_col_in_fullres
#>    <chr>              <lgl>         <int>     <int> <chr>                  <int>
#>  1 AAACAACGAATAGTTC-1 FALSE             0        16 section1                2312
#>  2 AAACAAGTATCTCCCA-1 TRUE             50       102 section1                8230
#>  3 AAACAATCTACTAGCA-1 TRUE              3        43 section1                4170
#>  4 AAACACCAATAACTGC-1 TRUE             59        19 section1                2519
#>  5 AAACAGAGCGACTCCT-1 TRUE             14        94 section1                7679
#>  6 AAACAGCTTTCAGAAG-1 FALSE            43         9 section1                1831
#>  7 AAACAGGGTCTATATT-1 FALSE            47        13 section1                2106
#>  8 AAACAGTGTTCCTGGG-1 FALSE            73        43 section1                4170
#>  9 AAACATGGTGAGAGGA-1 FALSE            62         0 section1                1212
#> 10 AAACATTTCCCGGATT-1 FALSE            61        97 section1                7886
#> # ℹ 89 more rows
#> # ℹ 1 more variable: pxl_row_in_fullres <int>
…
