Pivot data from wide to long — pivot_longer • tidySpatialExperiment
…
#> in_tissue section1 section2
#>     FALSE       28       27
#>     TRUE        22       22
#> 
#> rd10xV> # view available images
#> rd10xV> imgData(spe)
#> DataFrame with 2 rows and 4 columns
#>     sample_id    image_id   data scaleFactor
#>   <character> <character> <list>   <numeric>
#> 1    section1      lowres   ####   0.0510334
#> 2    section2      lowres   ####   0.0510334
spe |>
    pivot_longer(c(array_row, array_col), names_to = "dimension", values_to = "location")
#> tidySingleCellExperiment says: A data frame is returned for independent data analysis.
#> # A tibble: 198 × 7
#>    .cell     in_tissue sample_id pxl_col_in_fullres pxl_row_in_fullres dimension
#>    <chr>     <lgl>     <chr>                  <int>              <int> <chr>    
#>  1 AAACAACG… FALSE     section1                2312               1252 array_row
#>  2 AAACAACG… FALSE     section1                2312               1252 array_col
#>  3 AAACAAGT… TRUE      section1                8230               7237 array_row
#>  4 AAACAAGT… TRUE      section1                8230               7237 array_col
#>  5 AAACAATC… TRUE      section1                4170               1611 array_row
#>  6 AAACAATC… TRUE      section1                4170               1611 array_col
#>  7 AAACACCA… TRUE      section1                2519               8315 array_row
#>  8 AAACACCA… TRUE      section1                2519               8315 array_col
#>  9 AAACAGAG… TRUE      section1                7679               2927 array_row
#> 10 AAACAGAG… TRUE      section1                7679               2927 array_col
#> # ℹ 188 more rows
#> # ℹ 1 more variable: location <int>
…
